<?xml version="1.0" encoding="utf-8"?>
<!-- Generator: Adobe Illustrator 16.0.0, SVG Export Plug-In . SVG Version: 6.00 Build 0)  -->
<!DOCTYPE svg PUBLIC "-//W3C//DTD SVG 1.1//EN" "http://www.w3.org/Graphics/SVG/1.1/DTD/svg11.dtd">
<svg version="1.1" id="Слой_1" xmlns="http://www.w3.org/2000/svg" xmlns:xlink="http://www.w3.org/1999/xlink" x="0px" y="0px"
	 width="96px" height="96px" viewBox="0 0 96 96" enable-background="new 0 0 96 96" xml:space="preserve">
<g>
	<path fill="#FFFFFF" d="M46.864,41.324l2.481-1.416l4.834,7.723l-2.481,1.414L46.864,41.324L46.864,41.324z"/>
	<path fill="#FFFFFF" d="M40.212,44.88l2.483-1.414l3.122,7.112l-2.482,1.414L40.212,44.88L40.212,44.88z"/>
	<path fill="#FFFFFF" d="M60.469,35.443v-3.587c-0.016-0.017-1.155-0.867-1.541-1.159c-0.64-0.488-1.902-0.951-2.645-1.232v5.25
		h-3.141v-8.691c0,0,5.561,1.077,6.85,2.043l0,0c1.288,0.979,3.617,2.438,3.617,2.438v4.938H60.469z"/>
</g>
<g>
	<path fill="#FFFFFF" d="M70.935,38.425c0-2.084-1.729-4.028-3.813-4.028h-4.511h-9.364c0,8.371-5.727,11.51-12.662,11.51h-3.14
		c-6.583,0-11.983,5.066-12.515,11.511c-0.114,1.387-0.042,4.879-0.042,4.186h46.046V38.425L70.935,38.425z M67.794,59.51H28.048
		c0.004-0.389,0.01-1.738,0.015-1.869c0.416-4.822,4.53-8.596,9.383-8.596h3.14c7.581,0,14.978-4.905,15.069-11.509h4.724h3.605
		c2.085,0,3.812,1.69,3.812,3.774L67.794,59.51L67.794,59.51z"/>
</g>
<path fill="#FFFFFF" d="M68.841,61.604v5.232h1.032c-0.891-0.67-1.985-1.047-3.126-1.047c-1.14,0-2.232,0.377-3.123,1.047h-3.168
	c-0.895-0.67-1.987-1.047-3.127-1.047c-1.141,0-2.235,0.377-3.126,1.047h-3.168c-0.891-0.67-1.985-1.047-3.125-1.047
	c-1.14,0-2.234,0.377-3.125,1.047h-3.168c-0.892-0.67-1.985-1.047-3.125-1.047s-2.234,0.377-3.125,1.047h-3.167
	c-0.892-0.67-1.986-1.047-3.125-1.047s-2.235,0.377-3.125,1.047h1.032v-5.232H68.841 M71.98,59.51H23.841v10.467h3.429
	c0.363-0.625,1.031-1.047,1.803-1.047c0.772,0,1.439,0.422,1.803,1.047h5.813c0.362-0.625,1.03-1.047,1.803-1.047
	c0.774,0,1.441,0.422,1.804,1.047h5.814c0.362-0.625,1.03-1.047,1.803-1.047c0.774,0,1.44,0.422,1.803,1.047h5.813
	c0.363-0.625,1.031-1.047,1.806-1.047c0.773,0,1.44,0.422,1.804,1.047h5.813c0.362-0.625,1.028-1.047,1.803-1.047
	c0.772,0,1.438,0.422,1.803,1.047h3.424C71.98,66.865,71.98,62.59,71.98,59.51L71.98,59.51z"/>
</svg>
